com\changhr\cbox\httpclientpro\autoconfig\PoolingHttpClientConnectionManagerConf.class
com\changhr\cbox\httpclientpro\service\RequestConfigService.class
com\changhr\cbox\httpclientpro\properties\DefaultProxyRoutePlannerProperties.class
com\changhr\cbox\httpclientpro\properties\ConnectionKeepAliveStrategyProperties.class
com\changhr\cbox\httpclientpro\service\PoolingHttpClientConnectionManagerService.class
com\changhr\cbox\httpclientpro\service\ConnectionKeepAliveStrategyService.class
com\changhr\cbox\httpclientpro\autoconfig\DefaultProxyRoutePlannerConf.class
com\changhr\cbox\httpclientpro\service\HttpRequestRetryHandlerService.class
com\changhr\cbox\httpclientpro\autoconfig\RequestConfigConf.class
com\changhr\cbox\httpclientpro\properties\HttpRequestRetryHandlerProperties.class
com\changhr\cbox\httpclientpro\service\ConnectionKeepAliveStrategyService$1.class
com\changhr\cbox\httpclientpro\autoconfig\ConnectionKeepAliveStrategyConf.class
com\changhr\cbox\httpclientpro\autoconfig\HttpRequestRetryHandlerConf.class
META-INF\spring-configuration-metadata.json
com\changhr\cbox\httpclientpro\http\CustomTrustManager.class
com\changhr\cbox\httpclientpro\service\HttpRequestRetryHandlerService$1.class
com\changhr\cbox\httpclientpro\service\DefaultProxyRoutePlannerService.class
com\changhr\cbox\httpclientpro\properties\PoolingHttpClientConnectionManagerProperties.class
com\changhr\cbox\httpclientpro\properties\RequestConfigProperties.class
com\changhr\cbox\httpclientpro\autoconfig\RegistryConf.class
